2000 1 0.307692 0.5 0.589744 0.435897 0.435897 0.230769 0.25641 0.0769231 0.487179 0.692308 0.5 0.282051 0.282051;
2000 1 0.89 0.11 0.7 0.55 0.1 0.31 0.66 0.28 0.26 0.44 0.64 0.88 0.69;
2000 1 0.66 0.45 0.39 0.42 0.95 0.08 0.33 0.31 0.88 0.31 0.25 0.02 0.2;
2000 1 0 0.666667 0.641026 0 0.1 0.538462 0.769231 0.28 0.666667 0.333333 0.384615 0.384615 0.025641;
5000 1 0 0.666667 0.641026 0.487179 0.230769 0.538462 0.179487 0.28 0.230769 0.333333 0.384615 0.384615 0.025641;
2000 1 0 0.128205 0.358974 0.384615 0.461538 0.589744 0.564103 0.589744 0.435897 0.589744 0.538462 0.512821 0.333333;
