all fade 50 start 0.1 end 0.2 vol 1;
0 table live-0;
1 table live-1;
2 table live-2;
3 table live-3;
4 table live-4;
5 table live-5;
0 table metal-5 start 0 end 0.5;
1 table metal-6 start 0 end 0.5;
2 table metal-7 start 0 end 0.5;
3 table metal-8 start 0 end 0.5;
4 table metal-9 start 0 end 0.5;
5 table metal-18 start 0 end 0.5;
0 table voix-12;
1 table voix-14;
2 table voix-16;
3 table voix-17;
4 table voix-5;
5 table voix-8 start 0.1 end 0.12;
