0.9 0.3 0.4 0.9 0.1 0.3 0.8 0.7 0.9 0 0.5 0.5 0.8 0.8 0.9 0.4 1 0.7
1 1 1 1 1 1 0.1 1 1 1 1 0.7 1 1;
0.4 0.2 0.3 0.6 0.7 0.7 0.4 0.1 0.5 0.4 0.1 0.8 0.8 0.6 0 0.7 1 0.7
1 1 1 1 1 1 0.1 1 1 1 1 0.7 1 1;
