0 0.000298 0.001184 0.002646 0.004672 0.00725 0.010368 0.014014 0.018176
0.022842 0.028 0.033638 0.039744 0.046306 0.053312 0.06075 0.068608
0.076874 0.085536 0.094582 0.104 0.113778 0.123904 0.134366 0.145152
0.15625 0.167648 0.179334 0.191296 0.203522 0.216 0.228718 0.241664
0.254826 0.268192 0.28175 0.295488 0.309394 0.323456 0.337662 0.352
0.366458 0.381024 0.395686 0.410432 0.42525 0.440128 0.455054 0.470016
0.485002 0.5 0.514998 0.529984 0.544946 0.559872 0.57475 0.589568 0.604314
0.618976 0.633542 0.648 0.662338 0.676544 0.690606 0.704512 0.71825
0.731808 0.745174 0.758336 0.771282 0.784 0.796478 0.808704 0.820666
0.832352 0.84375 0.854848 0.865634 0.876096 0.886222 0.896 0.905418
0.914464 0.923126 0.931392 0.93925 0.946688 0.953694 0.960256 0.966362
0.972 0.977158 0.981824 0.985986 0.989632 0.99275 0.995328 0.997354
0.998816 0.999702;
0.999702 0.999702 0.998816 0.997354 0.995328 0.99275 0.989632 0.985986
0.981824 0.977158 0.972 0.966362 0.960256 0.953694 0.946688 0.93925
0.931392 0.923126 0.914464 0.905418 0.896 0.886222 0.876096 0.865634
0.854848 0.84375 0.832352 0.820666 0.808704 0.796478 0.784 0.771282
0.758336 0.745174 0.731808 0.71825 0.704512 0.690606 0.676544 0.662338
0.648 0.633542 0.618976 0.604314 0.589568 0.57475 0.559872 0.544946
0.529984 0.514998 0.5 0.485002 0.470016 0.455054 0.440128 0.42525 0.410432
0.395686 0.381024 0.366458 0.352 0.337662 0.323456 0.309394 0.295488
0.28175 0.268192 0.254826 0.241664 0.228718 0.216 0.203522 0.191296
0.179334 0.167648 0.15625 0.145152 0.134366 0.123904 0.113778 0.104
0.094582 0.085536 0.076874 0.068608 0.06075 0.053312 0.046306 0.039744
0.033638 0.028 0.022842 0.018176 0.014014 0.010368 0.00725 0.004672
0.002646 0.001184 0.000298;
0 0.00135642 0.00271284 0.00406926 0.00542569 0.00678211 0.00813853
0.00949495 0.0108514 0.0122078 0.0135642 0.0149206 0.0169841 0.0207143
0.0244444 0.0281746 0.0319048 0.0356349 0.0393651 0.0430952 0.0468254
0.0505556 0.0542857 0.0580159 0.061746 0.068254 0.0772064 0.0861587
0.0951111 0.104063 0.113016 0.121968 0.130921 0.139873 0.148825 0.157778
0.176063 0.19546 0.214857 0.234254 0.253651 0.273048 0.292444 0.311841
0.331238 0.350635 0.373122 0.404621 0.43612 0.467619 0.499118 0.530617
0.562116 0.593615 0.625115 0.656614 0.686984 0.716825 0.746667 0.776508
0.806349 0.830794 0.845714 0.860635 0.875556 0.890476 0.905397 0.920317
0.935238 0.950159 0.957143 0.962738 0.968333 0.973929 0.979524 0.985119
0.990714 0.99631 0.998153 0.992727 0.987302 0.981876 0.97645 0.971025
0.965599 0.960173 0.954747 0.949322 0.943896 0.93847 0.927936 0.914508
0.901079 0.887651 0.874222 0.860794 0.847365 0.833937 0.820508 0.807079
;
0 0 0.150515 0.238561 0.30103 0.349485 0.389076 0.422549 0.451545 0.477121
0.5 0.520696 0.539591 0.556972 0.573064 0.588046 0.60206 0.615224 0.627636
0.639377 0.650515 0.66111 0.671211 0.680864 0.690106 0.69897 0.707487
0.715682 0.723579 0.731199 0.738561 0.745681 0.752575 0.759257 0.765739
0.772034 0.778151 0.784101 0.789892 0.795532 0.80103 0.806392 0.811625
0.816734 0.821726 0.826606 0.831379 0.836049 0.840621 0.845098 0.849485
0.853785 0.858002 0.862138 0.866197 0.870181 0.874094 0.877937 0.881714
0.885426 0.889076 0.892665 0.896196 0.89967 0.90309 0.906457 0.909772
0.913037 0.916254 0.919425 0.922549 0.925629 0.928666 0.931661 0.934616
0.937531 0.940407 0.943245 0.946047 0.948813 0.951545 0.954243 0.956907
0.959539 0.96214 0.964709 0.967249 0.96976 0.972241 0.974695 0.977121
0.979521 0.981894 0.984241 0.986564 0.988862 0.991136 0.993386 0.995613
0.997818;
0.997818 0.997818 0.995613 0.993386 0.991136 0.988862 0.986564 0.984241
0.981894 0.979521 0.977121 0.974695 0.972241 0.96976 0.967249 0.964709
0.96214 0.959539 0.956907 0.954243 0.951545 0.948813 0.946047 0.943245
0.940407 0.937531 0.934616 0.931661 0.928666 0.925629 0.922549 0.919425
0.916254 0.913037 0.909772 0.906457 0.90309 0.89967 0.896196 0.892665
0.889076 0.885426 0.881714 0.877937 0.874094 0.870181 0.866197 0.862138
0.858002 0.853785 0.849485 0.845098 0.840621 0.836049 0.831379 0.826606
0.821726 0.816734 0.811625 0.806392 0.80103 0.795532 0.789892 0.784101
0.778151 0.772034 0.765739 0.759257 0.752575 0.745681 0.738561 0.731199
0.723579 0.715682 0.707487 0.69897 0.690106 0.680864 0.671211 0.66111
0.650515 0.639377 0.627636 0.615224 0.60206 0.588046 0.573064 0.556972
0.539591 0.520696 0.5 0.477121 0.451545 0.422549 0.389076 0.349485
0.30103 0.238561 0.150515 0;
0 0.000986606 0.00394258 0.0088563 0.0157083 0.0244716 0.0351116 0.0475863
0.0618465 0.0778359 0.0954913 0.114743 0.135515 0.157726 0.181288 0.206107
0.232086 0.259123 0.28711 0.315938 0.345491 0.375655 0.406309 0.437333
0.468605 0.5 0.531395 0.562667 0.593691 0.624345 0.654509 0.684062
0.71289 0.740877 0.767914 0.793893 0.818712 0.842274 0.864485 0.885257
0.904509 0.922164 0.938154 0.952414 0.964888 0.975528 0.984292 0.991144
0.996057 0.999013 1 0.999013 0.996057 0.991144 0.984291 0.975528 0.964888
0.952413 0.938153 0.922164 0.904508 0.885256 0.864484 0.842273 0.818711
0.793892 0.767913 0.740876 0.712889 0.684061 0.654508 0.624344 0.59369
0.562666 0.531394 0.499999 0.468604 0.437332 0.406308 0.375654 0.34549
0.315937 0.287109 0.259122 0.232086 0.206106 0.181287 0.157725 0.135515
0.114743 0.0954907 0.0778352 0.0618459 0.0475858 0.0351112 0.0244713
0.015708 0.00885606 0.00394243 0.000986546;
0 0.141067 0.198997 0.243105 0.28 0.31225 0.341174 0.36756 0.391918
0.414608 0.43589 0.455961 0.474974 0.493052 0.510294 0.526783 0.542586
0.557763 0.572363 0.58643 0.6 0.613107 0.62578 0.638044 0.649923 0.661438
0.672607 0.683447 0.693974 0.704202 0.714143 0.723809 0.733212 0.742361
0.751266 0.759934 0.768375 0.776595 0.784602 0.792401 0.8 0.807403
0.814616 0.821645 0.828493 0.835165 0.841665 0.847998 0.854166 0.860174
0.866025 0.871722 0.877268 0.882666 0.887919 0.893029 0.897998 0.902829
0.907524 0.912086 0.916515 0.920815 0.924986 0.929032 0.932952 0.93675
0.940425 0.943981 0.947418 0.950737 0.953939 0.957027 0.96 0.96286
0.965609 0.968246 0.970773 0.973191 0.9755 0.977701 0.979796 0.981784
0.983667 0.985444 0.987117 0.988686 0.990152 0.991514 0.992774 0.993932
0.994987 0.995942 0.996795 0.997547 0.998198 0.998749 0.9992 0.99955
0.9998 0.99995;
0 0.0826968 0.116093 0.141125 0.161725 0.179427 0.19502 0.208977 0.221608
0.233129 0.243696 0.25343 0.262422 0.270747 0.278465 0.285625 0.292268
0.298428 0.304135 0.309414 0.314286 0.31877 0.322882 0.326637 0.330046
0.333121 0.335869 0.3383 0.34042 0.342235 0.343749 0.344967 0.345891
0.346525 0.346869 0.346946 0.347069 0.347346 0.347776 0.34836 0.349098
0.349991 0.351039 0.352243 0.353603 0.355122 0.3568 0.358638 0.360638
0.362801 0.365129 0.367624 0.370287 0.373121 0.376128 0.379311 0.382672
0.386214 0.389941 0.393856 0.397963 0.402264 0.406766 0.411472 0.416387
0.421517 0.426867 0.432443 0.438253 0.444304 0.450603 0.45716 0.463983
0.471083 0.478472 0.486161 0.494165 0.502498 0.511178 0.520223 0.529655
0.539497 0.549776 0.560522 0.571772 0.583565 0.595949 0.608981 0.622727
0.637269 0.652707 0.669166 0.686807 0.705843 0.726564 0.749388 0.774956
0.804338 0.839618 0.886153;
0 0.224893 0.288856 0.334402 0.37101 0.402144 0.429511 0.454098 0.476531
0.497237 0.516519 0.534606 0.551671 0.567849 0.58325 0.597964 0.612064
0.625611 0.638658 0.65125 0.663425 0.675217 0.686656 0.697767 0.708574
0.719096 0.729353 0.739361 0.749129 0.75866 0.767956 0.77702 0.785855
0.794463 0.802846 0.811008 0.818951 0.826677 0.834189 0.841489 0.848581
0.855467 0.86215 0.868632 0.874915 0.881004 0.886899 0.892605 0.898123
0.903456 0.908608 0.913581 0.918377 0.923 0.927452 0.931736 0.935854
0.939811 0.943608 0.947248 0.950735 0.95407 0.957258 0.960301 0.963202
0.965963 0.968589 0.971081 0.973443 0.975678 0.97779 0.97978 0.981652
0.98341 0.985056 0.986594 0.988027 0.989358 0.990591 0.991728 0.992774
0.993731 0.994602 0.995393 0.996105 0.996742 0.997309 0.997808 0.998244
0.99862 0.99894 0.999208 0.999429 0.999605 0.999742 0.999844 0.999916
0.999962 0.999988 0.999998;
0.999998 0.999998 0.999988 0.999962 0.999916 0.999844 0.999742 0.999605
0.999429 0.999208 0.99894 0.99862 0.998244 0.997808 0.997309 0.996742
0.996105 0.995393 0.994602 0.993731 0.992774 0.991728 0.990591 0.989358
0.988027 0.986594 0.985056 0.98341 0.981652 0.97978 0.97779 0.975678
0.973443 0.971081 0.968589 0.965963 0.963202 0.960301 0.957258 0.95407
0.950735 0.947248 0.943608 0.939811 0.935854 0.931736 0.927452 0.923
0.918377 0.913581 0.908608 0.903456 0.898123 0.892605 0.886899 0.881004
0.874915 0.868632 0.86215 0.855467 0.848581 0.841489 0.834189 0.826677
0.818951 0.811008 0.802846 0.794463 0.785855 0.77702 0.767956 0.75866
0.749129 0.739361 0.729353 0.719096 0.708574 0.697767 0.686656 0.675217
0.663425 0.65125 0.638658 0.625611 0.612064 0.597964 0.58325 0.567849
0.551671 0.534606 0.516519 0.497237 0.476531 0.454098 0.429511 0.402144
0.37101 0.334402 0.288856 0.224893;
0.0170511 0.02006 0.0230691 0.0230691 0.0240721 0.0250751 0.0280842
0.0310933 0.0310933 0.0310933 0.0351054 0.0381145 0.0381145 0.0441326
0.0461387 0.0461387 0.0491478 0.0531599 0.0541629 0.056169 0.057172
0.0591781 0.0641932 0.0682053 0.0732204 0.0772325 0.0782356 0.0802416
0.0872628 0.0922779 0.0972931 0.10632 0.115348 0.120363 0.125378 0.130393
0.136411 0.140423 0.147444 0.154466 0.164496 0.17252 0.179541 0.183553
0.188569 0.19559 0.203614 0.208629 0.217656 0.221668 0.224678 0.232702
0.23872 0.246744 0.254768 0.262793 0.27182 0.27984 0.286861 0.293882
0.301906 0.30993 0.319961 0.334003 0.346039 0.355067 0.363091 0.370112
0.378136 0.38917 0.401206 0.415248 0.427285 0.443333 0.456372 0.469412
0.482451 0.500506 0.514548 0.523575 0.539624 0.556675 0.572723 0.588772
0.602814 0.623878 0.639926 0.655975 0.672023 0.692084 0.715153 0.731202
0.753268 0.781344 0.804413 0.840522 0.884654 0.949849 1.00301 1.001
;
