all fade 50 start 0 end 1 vol 1;
0 table harmoniques-0;
1 table harmoniques-1;
2 table harmoniques-3;
3 table harmoniques-2;
0 table harmoniques-2 end 0.15 speed 0.4;
1 table harmoniques-2 end 0.25 speed 0.6;
2 table harmoniques-0 end 0.25 speed 0.8 vol 0.6;
3 table harmoniques-2 end 0.25 speed 0.8;
0 table harmoniques-2 end 0.5;
1 table harmoniques-3 end 0.5;
2 table harmoniques-1 end 0.5;
3 table harmoniques-0 end 0.5;
0 table courts-4;
1 table courts-5;
2 table courts-7;
3 table courts-6;
0 table courts-11 speed 2.173;
1 table courts-10 speed 1.669;
2 table courts-10 end 0.5 speed 1.4;
3 table courts-1 end 0.5 speed 1.15;
0 table courts-21 speed 1 vol 0.8;
1 table courts-22 end 0.8 speed 0.9 fade 100 vol 0.6;
2 table courts-24 speed -2.33 fade 100 vol 0.55;
3 table courts-21 end 0.5 speed -2 fade 100 vol 0.35;
