0.2 0.3 0.641026 0.2 0.435897 0.307692 0.794872 0.692308 0.4 0.8 0.333333
0.6 0.307692 0.7 0.512821 0.307692 1 1 1 1 1 1 1 1 1 1 1 1 1 1 1 1
;
0.4 0 0.6 0 0.5 0.9 0.7 0.5 0.1 0.5 0.8 0.9 0.2 0.3 0.5 0.1 1 1 1 1
1 1 1 1 1 1 1 1 1 1 1 1;
0.4 0.102564 0.6 0.102564 0.5 0.9 0.7 0.461538 0.692308 0.5 0.230769
0.512821 0.2 0.461538 0.5 0.487179 1 1 1 1 1 1 1 1 1 1 1 1 1 1 1 1
;
0.4 0.102564 0.6 0.102564 0.5 0.9 0.7 0.461538 0.692308 0.820513 0.589744
0.512821 0.2 0.358974 0.641026 0.487179 1 1 1 1 1 1 1 1 1 1 1 1 1 1
1 1;
0.5 0.6 0.6 0.282051 0.7 0.358974 0.0769231 0.307692 0.9 0.6 0.7 0.8
0.589744 0.2 0 0.4 1 1 1 1 1 1 1 1 1 1 1 0 1 0 1 1;
0.5 0.6 0.6 0.0769231 0.7 0.410256 0.666667 0.179487 0.512821 0.333333
0.179487 0.461538 0.1 0.2 0.538462 0.4 1 1 1 1 1 1 1 1 1 1 1 1 1 1
1 1;
